Tidy Data: Why and How
…
library(tidyverse)
library(readr)
fertility_data <- read_csv("data/total_fertility.csv")

## Parsed with column specification:
## cols(
##   .default = col_double(),
##   `Total fertility rate` = col_character()
## )

## See spec(...) for full column specifications.

fertility_data

## # A tibble: 260 x 217
##    `Total fertility rate` `1800` `1801` `1802` `1803` `1804` `1805` `1806`
##    <chr>                   <dbl>  <dbl>  <dbl>  <dbl>  <dbl>  <dbl>  <dbl>
##  1 Abkhazia                NA     NA     NA     NA     NA     NA     NA   
##  2 Afghanistan              7.00   7.00   7.00   7.00   7.00   7.00   7.00
##  3 Akrotiri and Dhekelia   NA     NA     NA     NA     NA     NA     NA   
##  4 Albania                  4.60   4.60   4.60   4.60   4.60   4.60   4.60
##  5 Algeria                  6.99   6.99   6.99   6.99   6.99   6.99   6.99
##  6 American Samoa          NA     NA     NA     NA     NA     NA     NA   
##  7 Andorra                 NA     NA     NA     NA     NA     NA     NA   
##  8 Angola                   6.93   6.93   6.93   6.93   6.93   6.93   6.93
##  9 Anguilla                NA     NA     NA     NA     NA     NA     NA   
## 10 Antigua and Barbuda      5.00   5.00   4.99   4.99   4.99   4.98   4.98
## # ... with 250 more rows, and 209 more variables: `1807` <dbl>,
## #   `1808` <dbl>, `1809` <dbl>, `1810` <dbl>, `1811` <dbl>, `1812` <dbl>,
## #   `1813` <dbl>, `1814` <dbl>, `1815` <dbl>, `1816` <dbl>, `1817` <dbl>,
## #   `1818` <dbl>, `1819` <dbl>, `1820` <dbl>, `1821` <dbl>, `1822` <dbl>,
## #   `1823` <dbl>, `1824` <dbl>, `1825` <dbl>, `1826` <dbl>, `1827` <dbl>,
## #   `1828` <dbl>, `1829` <dbl>, `1830` <dbl>, `1831` <dbl>, `1832` <dbl>,
## #   `1833` <dbl>, `1834` <dbl>, `1835` <dbl>, `1836` <dbl>, `1837` <dbl>,
## #   `1838` <dbl>, `1839` <dbl>, `1840` <dbl>, `1841` <dbl>, `1842` <dbl>,
## #   `1843` <dbl>, `1844` <dbl>, `1845` <dbl>, `1846` <dbl>, `1847` <dbl>,
…
Making one column into many: spread()

Sometimes, you will need to go the other direction: take a long format dataset and make it into a more matrix-like format. This is necessary for such functions such as heatmap().

Let’s change things around and make the Country column into the variables (columns) in the dataset.

fertility_wide <- fertility_tidy %>% 
  # spread() takes a key (Country) and value (fertilityRate) argument
  # Note that we don't quote here, whereas we do in gather()
  spread(key = Country, value = fertilityRate) 

fertility_wide

## # A tibble: 216 x 202
##    Year  Afghanistan Albania Algeria Angola `Antigua and Barbud… Argentina
##    <chr>       <dbl>   <dbl>   <dbl>  <dbl>                <dbl>     <dbl>
##  1 1800           7.    4.60    6.99   6.93                 5.00      6.80
##  2 1801           7.    4.60    6.99   6.93                 5.00      6.80
##  3 1802           7.    4.60    6.99   6.93                 4.99      6.80
##  4 1803           7.    4.60    6.99   6.93                 4.99      6.80
##  5 1804           7.    4.60    6.99   6.93                 4.99      6.80
##  6 1805           7.    4.60    6.99   6.93                 4.98      6.80
##  7 1806           7.    4.60    6.99   6.93                 4.98      6.80
##  8 1807           7.    4.60    6.99   6.94                 4.97      6.80
##  9 1808           7.    4.60    6.99   6.94                 4.97      6.80
## 10 1809           7.    4.60    6.99   6.94                 4.97      6.80
## # ... with 206 more rows, and 195 more variables: Armenia <dbl>,
## #   Aruba <dbl>, Australia <dbl>, Austria <dbl>, Azerbaijan <dbl>,
## #   Bahamas <dbl>, Bahrain <dbl>, Bangladesh <dbl>, Barbados <dbl>,
## #   Belarus <dbl>, Belgium <dbl>, Belize <dbl>, Benin <dbl>, Bhutan <dbl>,
## #   Bolivia <dbl>, `Bosnia and Herzegovina` <dbl>, Botswana <dbl>,
## #   Brazil <dbl>, Brunei <dbl>, Bulgaria <dbl>, `Burkina Faso` <dbl>,
## #   Burundi <dbl>, Cambodia <dbl>, Cameroon <dbl>, Canada <dbl>, `Cape
## #   Verde` <dbl>, `Central African Republic` <dbl>, Chad <dbl>, `Channel
## #   Islands` <dbl>, Chile <dbl>, China <dbl>, Colombia <dbl>,
…
